Mass Data Data_unc Totalbkg Totalbkg_unc Multijet Wjets top Other
1150.0 547.0 23.388031 491.987455 35.474110 444.027982 14.841606 20.000458 8.116656
1250.0 5824.0 76.315136 5405.992882 116.233373 5077.045922 191.828162 52.415832 72.511821
1350.0 14453.0 120.220631 13805.554103 182.865120 13081.252442 456.645100 74.560778 169.598973
1450.0 14245.0 119.352419 13836.975522 173.923335 13137.925250 438.518252 72.013521 168.279522
1550.0 12021.0 109.640321 11662.480737 146.566026 11090.301808 352.757287 56.656106 147.578733
1650.0 9676.0 98.366661 9578.094159 122.254442 9109.573707 290.450927 44.316932 120.293614
1750.0 7765.0 88.119237 7891.838357 106.747670 7523.902136 224.723877 32.899487 97.934646
1850.0 6042.0 77.730303 6315.946129 92.612522 6023.867083 179.706879 24.393837 81.781194
1950.0 4864.0 69.742383 5088.413599 82.355416 4882.914661 129.576198 15.288891 56.275935
2050.0 3882.0 62.305698 4055.811239 72.189700 3886.260655 103.834586 13.895505 46.330399
2150.0 3210.0 56.656862 3188.449015 63.144710 3051.709374 84.629306 10.491540 38.496185
2250.0 2522.0 50.219518 2679.002707 57.767147 2575.478545 65.596164 8.392269 26.847170
2350.0 2017.0 44.911023 2124.722849 48.927447 2040.279588 50.896687 6.635694 25.668176
2450.0 1630.0 40.373258 1743.015054 46.569052 1678.195521 41.360603 3.775955 18.578822
2550.0 1276.0 35.721142 1317.833258 37.770589 1267.020198 31.103960 3.791493 15.139412
2650.0 1044.0 32.310989 1099.097345 34.402697 1062.520473 23.355212 2.005719 11.113240
2750.0 835.0 28.896367 903.541909 31.321530 872.726161 21.013943 1.551038 7.340341
2850.0 699.0 26.438608 771.552090 28.566271 743.779964 16.645073 1.490313 9.087096
2950.0 562.0 23.706539 645.758694 27.446450 626.688648 12.045594 0.992673 6.123330
3050.0 467.0 21.610183 483.023449 22.568545 467.406352 8.253103 0.798504 6.507865
3150.0 408.0 20.199010 407.509724 20.279341 392.484432 9.965824 0.751569 4.161798
3250.0 305.0 17.464249 364.912028 19.403687 354.549981 6.696952 0.348193 3.231159
3350.0 261.0 16.155494 294.442454 17.528239 287.351137 4.295881 0.160418 2.493122
3450.0 196.0 14.000000 249.617562 16.313404 243.509777 4.136191 0.064632 1.906962
3550.0 169.0 13.000000 213.199217 15.181712 207.142389 3.831950 0.368710 1.786842
3650.0 159.0 12.609520 175.347598 12.046842 172.302538 2.186184 0.000000 0.858875
3750.0 121.0 11.000000 134.759851 9.850173 132.205089 1.880070 0.001522 0.673169
3850.0 101.0 10.049876 108.333449 6.743839 104.757034 2.803394 0.308277 0.405517
3950.0 72.0 8.485281 120.718340 11.684077 117.564111 2.483967 0.184808 0.485454
4050.0 62.0 7.874008 98.099998 10.263187 95.414862 1.259910 0.174259 1.250967
4150.0 331.0 18.193405 509.969229 23.790674 501.028882 5.676885 0.260972 2.979306
