Score Data Data_unc Totalbkg Totalbkg_unc Multijet Wjets top Other
0.025 27477.0 165.761877 25985.153141 171.283906 25166.863105 545.125559 24.875931 224.767403
0.075 27696.0 166.421153 26050.730315 186.305202 25212.765013 555.857521 39.007643 219.224590
0.125 19490.0 139.606590 18340.066459 162.060855 17694.652302 435.729732 32.693801 159.531217
0.175 15261.0 123.535420 15124.003254 150.185564 14603.664608 341.998512 38.891643 120.781931
0.225 12731.0 112.831733 12535.340086 138.566223 12068.753058 313.924936 35.296714 101.770196
0.275 11314.0 106.367288 11655.634342 136.734990 11179.304939 321.696251 41.889593 99.909927
0.325 10573.0 102.825094 10588.091244 129.558190 10142.144801 290.569576 48.059168 92.969019
0.375 9775.0 98.868600 10398.554032 132.811726 9991.976757 259.385731 48.742813 85.677991
0.425 9228.0 96.062480 9533.394457 124.588076 9111.761015 257.424844 60.921729 87.543473
0.475 8823.0 93.930826 8984.843448 120.008310 8588.442926 244.001078 54.490667 81.835418
0.525 8561.0 92.525672 8943.043373 122.823707 8552.759001 218.511636 72.754181 85.055073
0.575 8354.0 91.400219 9005.679158 125.438437 8612.224024 226.889894 69.912048 82.728437
0.625 8170.0 90.388052 8580.648927 120.599513 8180.355458 218.541037 81.437397 83.489992
0.675 8131.0 90.172058 8558.285249 122.761578 8133.189117 222.105988 92.456322 88.351302
0.725 8143.0 90.238573 8638.548800 123.061697 8175.076183 242.864836 110.511647 89.509600
0.775 8157.0 90.316112 8699.455432 123.782204 8179.875865 256.390460 143.019198 93.713883
0.825 7707.0 87.789521 7831.053967 118.236301 7365.845938 222.251409 134.977842 89.810764
0.875 7334.0 85.638776 7591.373705 117.620064 7116.054471 207.532954 162.929091 86.371404
0.925 6041.0 77.723870 5888.466226 100.631371 5441.845080 188.305899 157.011773 80.703931
0.975 2626.0 51.244512 2659.634384 65.278024 2413.425060 90.543269 96.467520 46.240260
