Score R${4q} R^{3q} R^{lqq} W t^{3,4}
0.025 0.001984 0.007355 0.002042 0.004846 0.018621
0.075 0.009122 0.019445 0.004998 0.013688 0.024871
0.125 0.016667 0.028173 0.005364 0.018074 0.027577
0.175 0.025309 0.032887 0.006315 0.016690 0.029232
0.225 0.028536 0.030306 0.008488 0.014911 0.032721
0.275 0.036830 0.039788 0.010859 0.012716 0.033332
0.325 0.041813 0.043742 0.013046 0.018444 0.036829
0.375 0.045707 0.047253 0.015843 0.024025 0.039788
0.425 0.052364 0.049444 0.017950 0.025606 0.042310
0.475 0.057253 0.053763 0.021936 0.025686 0.044663
0.525 0.062426 0.052818 0.022877 0.029286 0.048383
0.575 0.067517 0.055909 0.029666 0.026976 0.051872
0.625 0.070557 0.060241 0.032663 0.030373 0.055699
0.675 0.075750 0.075859 0.045187 0.039737 0.060856
0.725 0.073054 0.063605 0.050166 0.042285 0.065828
0.775 0.078426 0.073503 0.071998 0.058860 0.071186
0.825 0.079951 0.077852 0.089107 0.066006 0.078386
0.875 0.077174 0.078286 0.118702 0.094738 0.084297
0.925 0.061083 0.067256 0.152775 0.133590 0.087030
0.975 0.038478 0.042516 0.280017 0.303463 0.066516
