Mass Data Data_unc Totalbkg Totalbkg_unc Multijet Wjets Top Other (m_W_KK [TeV], m_R [TeV])_signal: (1.5, 0.3) (2, 0.2) (2, 1) (2.5, 1)
1050.0 3981.0 63.095166 2607.710565 73.670728 2379.699150 43.998276 139.063261 24.055066 15547.691888 5751.540385 22559.098570 10033.772506
1150.0 547027.0 739.612737 514290.863966 1178.492533 499389.174291 6634.936760 4867.500031 2782.793315 87577.184958 9477.826929 17072.450271 3513.785657
1250.0 970714.0 985.248192 936136.915794 1584.042820 908659.381764 11593.150132 10049.357135 4807.039452 259130.972674 16665.135951 18529.971421 2376.648919
1350.0 918709.0 958.493088 895688.386671 1530.870552 869867.825017 11092.396259 9164.277667 4597.817508 631556.880314 28353.021442 23375.725375 3113.214751
1450.0 784479.0 885.708191 778672.237834 1384.794974 756826.531502 9601.704589 7462.201472 4012.297627 931796.229484 38583.323054 25585.779773 3407.863150
1550.0 645095.0 803.178062 648640.800275 1191.293524 630764.939542 8031.291385 5854.185430 3367.790288 619599.010868 55007.890301 30879.998516 3679.004110
1650.0 525374.0 724.826876 527701.069157 1004.987954 513409.208325 6619.606904 4416.235299 2788.524891 192436.516074 74690.222430 30991.499965 4614.096833
1750.0 422158.0 649.736870 426744.472522 865.092019 415216.128149 5431.582715 3435.931971 2277.041061 40798.843119 113652.977756 24739.568865 5320.593838
1850.0 338861.0 582.117686 343531.429499 749.643028 334412.090935 4404.391846 2520.424971 1901.668422 16786.185984 186362.043419 19512.009308 5956.103140
1950.0 271589.0 521.142015 279000.089451 660.582795 271639.578831 3653.965245 1957.921960 1532.774566 10043.974823 299223.330198 18692.008347 7097.109885
2050.0 217900.0 466.797601 224934.326358 578.586921 219092.805750 2934.835369 1484.259616 1244.437581 5838.007767 313738.344656 14212.280124 8836.458333
2150.0 175106.0 418.456688 181947.058757 511.905741 177224.565208 2409.162756 1146.605447 1030.590357 4721.622548 142632.808028 6212.006486 9878.400971
2250.0 141606.0 376.305727 147610.593913 452.360048 143827.059222 1976.431679 857.612277 836.578296 3236.032583 35963.247525 1265.793215 9327.529615
2350.0 114862.0 338.912968 119711.468131 402.082341 116647.267259 1623.574155 668.170122 690.613648 1297.296818 10713.492010 668.249551 7692.674886
2450.0 92752.0 304.552130 97854.354192 358.787827 95370.673176 1350.247259 496.426742 570.080645 1923.975020 4293.359684 145.572379 5445.234561
2550.0 74747.0 273.398976 79558.102113 319.874130 77531.841922 1106.369993 407.055858 465.087106 3142.653183 2457.981351 354.578922 3407.477518
2650.0 61058.0 247.099170 66107.356214 289.648069 64491.216625 896.151120 294.442717 385.218888 350.560277 1990.315862 149.714152 1546.836498
2750.0 49713.0 222.964123 53696.074864 257.326323 52340.024705 754.606811 250.118437 317.811304 677.601935 1094.606804 44.145851 523.055558
2850.0 40806.0 202.004950 43788.673684 228.181682 42696.878931 622.800104 186.668033 257.217774 785.046154 746.655439 82.060871 147.015713
2950.0 33564.0 183.204803 36448.037184 207.731871 35567.085385 495.381750 148.970798 214.528806 171.790191 541.689164 0.000000 52.801011
3050.0 27232.0 165.021211 30204.519673 188.312822 29466.603525 419.940784 118.857875 182.910629 0.000000 537.523514 0.000000 78.559924
3150.0 22249.0 149.160987 24972.333072 169.919858 24339.690001 370.530709 95.155602 153.617738 507.129459 127.146826 0.000000 44.395077
3250.0 18583.0 136.319478 20560.475909 151.217800 20042.511811 308.997228 73.353705 124.135996 167.038747 260.591792 82.257426 0.000000
3350.0 15278.0 123.604207 17251.189418 138.291304 16830.845021 245.226428 56.847049 108.197636 0.000000 117.651055 0.000000 0.000000
3450.0 12342.0 111.094554 14026.544320 122.797385 13675.603299 213.538737 46.577117 85.738332 0.000000 124.611065 0.000000 0.000000
3550.0 10253.0 101.257099 11934.365064 114.165590 11636.992614 185.685479 39.204373 67.682429 244.549882 149.682728 78.998582 0.000000
3650.0 8493.0 92.157474 9893.905719 100.769423 9652.350928 149.087545 27.756313 59.524681 0.000000 19.014135 0.000000 0.000000
3750.0 6940.0 83.306662 8280.160670 92.775409 8081.148725 125.135814 21.765490 46.946008 0.000000 79.318773 0.000000 14.187632
3850.0 5808.0 76.210236 7108.244916 87.691691 6940.943119 105.025003 16.779017 41.249287 0.000000 51.641988 0.000000 0.000000
3950.0 4665.0 68.300805 5730.075724 73.649060 5589.953639 91.393602 13.018635 32.896527 0.000000 54.122963 0.000000 0.000000
4050.0 3907.0 62.506000 4766.077800 67.587458 4649.424534 75.551187 11.843533 26.864741 0.000000 56.294800 0.000000 0.000000
4150.0 18331.0 135.392023 24784.086572 147.121767 24208.690941 385.481325 49.169479 132.953714 0.000000 181.584429 0.000000 14.737477
