Mass Data Data_unc Totalbkg Totalbkg_unc Multijet Top Other (m_W_KK [TeV], m_R [TeV])_signal: (2.5, 0.2) (2.5, 1.25)
1.15 0.0 1.841022 0.434937 0.351438 0.104258 0.180675 0.150004 0.000000 0.000000
1.25 4.0 2.538546 5.050364 0.690994 2.641464 0.886244 1.522657 0.000000 0.014918
1.35 18.0 4.761947 21.297045 1.626020 12.872831 2.502863 5.921350 0.000000 0.010861
1.45 42.0 6.993505 35.080864 2.560754 20.977016 3.477348 10.626499 0.000000 0.134531
1.55 39.0 6.758237 35.389122 2.411040 23.330137 2.927422 9.131564 0.000000 0.207086
1.65 37.0 6.596349 37.726967 2.451188 22.932705 3.618838 11.175424 0.016667 0.274940
1.75 39.0 6.758237 33.727081 2.468716 21.257822 1.859982 10.609280 0.000000 0.543475
1.85 20.0 4.990484 28.688955 1.977122 19.107588 2.275343 7.306025 0.014924 0.347042
1.95 28.0 5.807078 25.407951 1.808837 17.099365 1.465093 6.843493 0.022155 0.402048
2.05 19.0 4.877708 21.184320 1.401216 14.895331 0.684537 5.604451 0.050266 0.561713
2.15 17.0 4.642951 17.835213 1.245208 12.676276 0.602220 4.556716 0.067643 0.688013
2.25 16.0 4.520433 16.214472 1.380831 10.381655 1.011884 4.820932 0.076254 0.909557
2.35 13.0 4.128118 11.947818 0.982357 8.780499 0.197099 2.970220 0.098722 1.845629
2.45 14.0 4.263441 11.331264 0.915286 7.549547 0.418504 3.363213 0.096830 2.335441
2.55 10.0 3.687822 8.931626 0.840611 6.333715 0.646230 1.951682 0.180637 3.735171
2.65 4.0 2.538546 7.505716 0.743232 5.433061 0.286746 1.785910 0.190603 2.511280
2.75 6.0 2.981786 6.520503 0.705298 4.422333 0.391158 1.707011 0.089678 0.793293
2.85 5.0 2.771082 5.369102 0.578106 3.990558 0.189195 1.189349 0.125455 0.150046
2.95 9.0 3.526833 5.053015 0.684099 2.922081 0.193812 1.937121 0.120205 0.034055
3.05 4.0 2.538546 4.101274 0.673115 2.523450 0.531739 1.046085 0.062467 0.034113
3.15 0.0 1.841022 2.785169 0.436460 2.251508 0.000000 0.533661 0.016056 0.052546
3.25 3.0 2.275445 2.594337 0.352819 1.820044 0.305561 0.468732 0.012600 0.000000
3.35 4.0 2.538546 1.844619 0.219575 1.465201 0.149696 0.229722 0.044377 0.000000
3.45 1.0 1.563386 1.639281 0.216138 1.306752 0.000000 0.332528 0.023299 0.012772
3.55 1.0 1.563386 1.371292 0.282072 1.027824 0.232603 0.110865 0.000000 0.000000
3.65 0.0 1.841022 1.161059 0.228762 0.865910 0.000000 0.295149 0.022412 0.014176
3.75 1.0 1.563386 0.697522 0.072991 0.697522 0.000000 0.000000 0.000000 0.000000
3.85 0.0 1.841022 0.712855 0.116891 0.634604 0.000000 0.078251 0.000000 0.000000
3.95 0.0 1.841022 0.592335 0.151711 0.477004 0.000000 0.115331 0.008767 0.000000
4.05 1.0 1.563386 0.735734 0.243422 0.406542 0.102994 0.226198 0.000000 0.000000
4.15 0.0 1.841022 0.546060 0.204227 0.312894 0.000000 0.233165 0.041166 0.000000
4.25 0.0 1.841022 0.386626 0.163007 0.225133 0.000000 0.161493 0.000000 0.000000
4.35 0.0 1.841022 0.312834 0.099297 0.226316 0.000000 0.086518 0.000000 0.000000
4.45 0.0 1.841022 0.180081 0.029933 0.180081 0.000000 0.000000 0.000000 0.000000
4.55 0.0 1.841022 0.174119 0.028900 0.174119 0.000000 0.000000 0.000000 0.000000
4.65 0.0 1.841022 0.125488 0.023083 0.125488 0.000000 0.000000 0.000000 0.000000
4.75 0.0 1.841022 0.303824 0.184617 0.101853 0.000000 0.201971 0.011240 0.000000
4.85 0.0 1.841022 0.213777 0.186216 0.081130 0.000000 0.132647 0.000000 0.000000
4.95 0.0 1.841022 0.053169 0.014715 0.053169 0.000000 0.000000 0.020021 0.000000
5.05 0.0 1.841022 0.737342 0.239568 0.480008 0.000000 0.257334 0.000000 0.000000
